{
  "name": "pf2e",
  "title": "Pathfinder 2nd Edition",
  "description": "An early alpha game system for running games of Pathfinder 2nd Edition in the Foundry VTT environment.",
  "version": "0.518",
  "schema": 0.411,
  "minimumCoreVersion": "0.4.7",
  "author": "hooking, Trey",
  "esmodules": ["pf2e.js"],
  "scripts": [
    "./scripts/init.js",
    "./scripts/actor/sheet/base.js",
    "./scripts/actor/sheet/character.js",
    "./scripts/actor/sheet/npc.js",
    "./scripts/item/sheet.js",
    "./scripts/actor/trait-selector.js",
    "./scripts/dice.js",
    "./scripts/packs/spell-browser.js",
    "./scripts/chat/chatdamagebuttonsPF2e.js",
    "./scripts/actor/sheet/npcSheet/updatednpcsheet.js"
  ],
  "styles": ["./pf2e.css"],
  "packs": [
    {
      "name": "spells-srd",
      "label": "Spells (SRD)",
      "system": "pf2e",
      "module": "pf2e",
      "path": "./packs/spells.db",
      "entity": "Item"
    },
    {
      "name": "feats-srd",
      "label": "Feats (SRD)",
      "system": "pf2e",
      "module": "pf2e",
      "path": "./packs/feats.db",
      "entity": "Item"
    },
    {
      "name": "armor-srd",
      "label": "Armors (SRD)",
      "system": "pf2e",
      "module": "pf2e",
      "path": "./packs/armor.db",
      "entity": "Item"
    },
    {
      "name": "weapons-srd",
      "label": "Weapons (SRD)",
      "system": "pf2e",
      "module": "pf2e",
      "path": "./packs/weapons.db",
      "entity": "Item"
    },
    {
      "name": "adventuringgear-srd",
      "label": "Adventuring Gear (SRD)",
      "system": "pf2e",
      "module": "pf2e",
      "path": "packs/adventuringgearsrd.db",
      "entity": "Item"
    },
    {
      "name": "consumables-srd",
      "label": "Consumables (SRD)",
      "path": "packs/consumablessrd.db",
      "entity": "Item",
      "module": "pf2e",
      "system": "pf2e"
    },
    {
      "name": "conditionspf2e",
      "label": "Conditions (PF2e)",
      "system": "pf2e",
      "module": "pf2e",
      "path": "packs/conditionspf2e.db",
      "entity": "JournalEntry"
    },
    {
      "name": "actionspf2e",
      "label": "Actions (SRD)",
      "system": "pf2e",
      "module": "pf2e",
      "path": "packs/actions.db",
      "entity": "Item"
    },
    {
      "name": "alchemicalitems-srd",
      "label": "Alchemical Items (SRD)",
      "path": "packs/alchemicalitemssrd.db",
      "entity": "Item",
      "module": "pf2e",
      "system": "pf2e"
    },
    {
      "name": "bestiaryv0507",
      "label": "Bestiary v0.507",
      "system": "pf2e",
      "module": "pf2e",
      "path": "packs/bestiaryv0507.db",
      "entity": "Actor"
    }
  ],
  "languages": [
    {
      "lang": "en",
      "name": "English",
      "path": "lang/en.json"
    }
  ],
  "socket": true,
  "templateVersion": 2,
  "initiative": "1d20 + @attributes.perception.value + (@abilities.wis.value / 100)",
  "gridDistance": 5,
  "gridUnits": "ft",
  "url": "https://gitlab.com/hooking/foundry-vtt---pathfinder-2e",
  "manifest": "https://gitlab.com/hooking/foundry-vtt---pathfinder-2e/raw/master/system.json",
  "download": "https://gitlab.com/hooking/foundry-vtt---pathfinder-2e/uploads/ef1d0755383064c7f5210a6a069e54c9/pf2e-v0.518.zip"
}